Datenanalyse mit R
…
        Datenanalyse mit R

    Devise a strategy for all days or months!

    Try to get something like this

## # A tibble: 223 x 4
##   month   day cruise_count station_count
##   <dbl> <int>        <int>         <int>
## 1     1    12            2             4
## 2     1    13            1             2
## 3     1    14            1             2
## 4     1    15            1             1
## 5     1    19            3             9
## 6     1    20            3             7
## 7     1    21            3             5
## # … with 216 more rows
…
        Datenanalyse mit R

    Quiz 4: Complex data manipulations

    Which depths are most frequently sampled?

depth_prof <-hydro %>%
transmute(pres2 = ceiling(pres)) %>%
 group_by(pres2) %>%
 count() %>%
 arrange(desc(n)) %>% 
  print(n = 12)

## # A tibble: 216 x 2
## # Groups:   pres2 [216]
##    pres2     n
##    <dbl> <int>
##  1     5  2370
##  2    10  2232
##  3     1  1880
##  4    20  1797
##  5    15  1736
##  6    40  1609
##  7    30  1565
##  8     0  1524
##  9    50  1246
## 10    25  1083
## 11    35   965
## 12    45   854
## # … with 204 more rows
…
