Datenanalyse mit R
…
Vergleich der Körperlänge von 2 Anchovispopulationen (Engraulis encrasicolus) im Golf von Biskaya (GoB, n = 100) und der Nordsee (NS, n = 60).

anchovis <- read_tsv("data/Anchovis.txt")
anchovis

## # A tibble: 100 x 2
##      GoB    NS
##    <dbl> <dbl>
##  1  15.5 16.2 
##  2  11.8 20.6 
##  3  16.7 11.2 
##  4  17.4 15.0 
##  5  14.8 17.6 
##  6  11.5  8.47
##  7  13.7 12.3 
##  8  11.0 18.5 
##  9  10.7 13.0 
## 10  19.1 16.2 
## # … with 90 more rows
…
