Datenanalyse mit R
…
        Datenanalyse mit R

    Printen von tibbles

jede Spalte gibt ihren Datentyp mit an

nur die ersten 10 10 Zeilen und alle Spalten die in den screen passen werden angezeigt --> viel einfacher umzugehen mit großen Datensätzen

Wenn Du die Anzeige der Zeilen (n) und Spalten (width) ändern willst benutze print() und ändere die Argumente:

print(iris_tbl, n = 2, width = Inf)  # = Inf shows all columns

## # A tibble: 150 x 5
##   Sepal.Length Sepal.Width Petal.Length Petal.Width Species
##          <dbl>       <dbl>        <dbl>       <dbl> <fct>  
## 1          5.1         3.5          1.4         0.2 setosa 
## 2          4.9         3            1.4         0.2 setosa 
## # … with 148 more rows
…
