Datenanalyse mit R
…
        Datenanalyse mit R

    Your turn...

  Import the following dataset

library(tidyverse)
date_ex <- read_csv("data/date_time_examples.csv")
print(date_ex, n = 5)

## # A tibble: 10 x 8
##   date1 date2 date3 sampling_start_CET  sampling_end_UTC     year month
##   <chr> <chr> <chr> <dttm>              <dttm>              <dbl> <dbl>
## 1 11-0… 8.11… 8 No… 2017-11-08 09:54:00 2017-11-08 10:40:00  2017    11
## 2 11-0… 9.11… 9 No… 2017-11-09 08:15:00 2017-11-09 09:07:00  2017    11
## 3 11-1… 10.1… 10 N… 2017-11-10 08:06:00 2017-11-10 09:09:00  2017    11
## 4 11-1… 11.1… 11 N… 2017-11-11 10:37:00 2017-11-11 11:59:00  2017    11
## 5 11-1… 12.1… 12 N… 2017-11-12 08:21:00 2017-11-12 09:02:00  2017    11
## # … with 5 more rows, and 1 more variable: day <dbl>
…
